<?xml version="1.0" encoding="UTF-8"?>
<svg width="71px" height="45px" viewBox="0 0 71 45" version="1.1" xmlns="http://www.w3.org/2000/svg" xmlns:xlink="http://www.w3.org/1999/xlink">
    <!-- Generator: Sketch 56.3 (81716) - https://sketch.com -->
    <title>Logo2</title>
    <desc>Created with Sketch.</desc>
    <g id="NEW-IATA" stroke="none" stroke-width="1" fill="none" fill-rule="evenodd">
        <g id="SL.BA.List---Default" transform="translate(-30.000000, -12.000000)" fill="#1E32FA">
            <g id="Logo2" transform="translate(30.000000, 12.000000)">
                <path d="M10.0006186,45 L12.836237,30.689366 L17.520071,30.689366 L14.6844526,45 L10.0006186,45 Z M24.0774387,40.3485408 L27.0396472,40.3485408 L26.2395977,35.0610533 L24.0825023,40.3495471 L24.0774387,40.3485408 Z M17.520071,45 L24.6010153,30.689366 L29.2413024,30.689366 L32.0769208,45 L27.802226,45 L27.5217023,43.2891647 L22.9644584,43.2891647 L22.203905,45 L17.520071,45 Z M36.3617428,45 L38.0023506,34.2670245 L33.9261491,34.2670245 L34.6066975,30.649111 L47.1644363,30.649111 L46.4838879,34.2670245 L42.6041542,34.2670245 L41.0040552,45 L36.3617428,45 Z M52.0832216,40.3485408 L55.0434047,40.3485408 L54.2818386,35.0620597 L52.0811961,40.3495471 L52.0832216,40.3485408 Z M45.5623119,45 L52.6027474,30.689366 L57.2430344,30.689366 L60.1637214,45 L55.7654746,45 L55.6054647,43.2891647 L50.9651777,43.2891647 L50.2046243,45 L45.5623119,45 Z M70.2828283,14.509896 L48.3645105,14.509896 C47.564461,18.5253271 44.7642878,21.9037236 39.1639414,24.2093257 C39.9394158,26.3395126 41.9273143,27.7977735 44.2042532,27.9067427 L56.1249905,27.9067427 C57.8203383,27.7455932 59.2924716,26.6788903 59.9652281,25.1241194 L47.8449847,25.1241194 C47.0844313,25.004361 47.0844313,24.4478363 47.8044759,24.3290842 L59.7252132,24.3290842 C61.2858161,24.3290842 62.6459002,23.0207984 63.4459497,21.5857095 L49.6445897,21.5857095 C48.8840363,21.465951 48.8840363,20.9094264 49.6445897,20.7906743 L63.5664635,20.7906743 C65.0065526,20.7906743 66.2471356,19.1603489 66.7666614,18.0472996 L51.4462201,18.0472996 C50.6856668,17.9275411 50.6856668,17.2522643 51.4462201,17.2120094 L67.0421215,17.2120094 C68.3222007,17.2522643 69.44227,15.939953 70.2828283,14.5088896 L70.2828283,14.509896 Z M4.12114787e-13,14.509896 L21.9223686,14.509896 C22.7224181,18.5253271 25.5225913,21.9037236 31.1229377,24.2093257 C30.3474634,26.3395126 28.3595649,27.7977735 26.082626,27.9067427 L14.1608759,27.9067427 C12.4655282,27.7455932 10.9933949,26.6788903 10.3206384,25.1241194 L22.4418944,25.1241194 C23.2024478,25.004361 23.2024478,24.4478363 22.4824033,24.3290842 L10.5606532,24.3290842 C9.00005036,24.3290842 7.63996623,23.0207984 6.83991675,21.5857095 L20.6422895,21.5857095 C21.4028428,21.465951 21.4028428,20.9094264 20.6422895,20.7906743 L6.72041568,20.7906743 C5.28032661,20.7906743 4.03974354,19.1603489 3.52021774,18.0472996 L18.8416718,18.0472996 C19.6022251,17.9275411 19.6022251,17.2522643 18.8416718,17.2120094 L3.24070678,17.2120094 C2.00012372,17.2532707 0.840558321,15.9409594 4.12114787e-13,14.509896 Z M28.0422409,2.50486414 C28.8435587,3.20661984 29.7474066,3.7834658 30.722913,4.21569943 C31.5516548,2.61447678 32.6784683,1.18396801 34.0436247,1.77635684e-15 C31.8352764,0.216534108 29.7438671,1.0894488 28.0422409,2.50486414 L28.0422409,2.50486414 Z M24.1614945,10.4954713 L29.0823052,10.4954713 C29.1295593,8.55700911 29.5776976,6.64894326 30.3988423,4.88996981 C29.3260089,4.43381675 28.3297677,3.8171472 27.4447355,3.0613888 C25.4320226,5.02942526 24.2576291,7.69101016 24.1645326,10.4954713 L24.1614945,10.4954713 Z M34.7636693,5.88326065 L34.7636693,10.4944649 L29.8823547,10.4944649 C29.917444,8.65233059 30.3400263,6.83787376 31.1229377,5.16772895 C32.2886803,5.60350447 33.518761,5.84525855 34.7636693,5.88326065 Z M42.2446383,2.50385777 C41.4433205,3.20561347 40.5394726,3.78245943 39.5639662,4.21469306 C38.7497239,2.61560557 37.6364943,1.18523033 36.2837633,0 C38.4797927,0.217167216 40.5580612,1.09049206 42.2446383,2.50486414 L42.2446383,2.50385777 Z M46.1648808,10.4944649 L41.2440701,10.4944649 C41.1789689,8.56651921 40.7581234,6.66684612 40.0024743,4.88996981 C41.0601335,4.42444179 42.0440022,3.8084622 42.9231613,3.0613888 C44.8983175,5.05124063 46.0541146,7.70260387 46.1638681,10.4954713 L46.1648808,10.4944649 Z M35.5637187,5.88326065 L35.5637187,10.4944649 L40.4075627,10.4944649 C40.3964028,8.64946449 39.9726545,6.8300011 39.1669796,5.16772895 C38.0152403,5.60333726 36.7984992,5.84516031 35.5667569,5.88326065 L35.5637187,5.88326065 Z M28.0422409,19.2408588 C28.8362393,18.5502079 29.7427416,17.9988933 30.722913,17.6105334 C31.5518696,19.2110359 32.6786712,20.6408464 34.0436247,21.8242201 C31.833249,21.5606025 29.7481046,20.6625281 28.0432536,19.2398524 L28.0422409,19.2408588 Z M24.1614945,11.2905065 L29.0823052,11.2905065 C29.1431838,13.2272193 29.5906938,15.1326099 30.3988423,16.8960081 C29.3260734,17.351852 28.3298358,17.96818 27.4447355,18.7235827 C25.4627946,16.7346212 24.2939649,14.0856459 24.1645326,11.2895002 L24.1614945,11.2905065 Z M34.7636693,15.9007045 L34.7636693,11.2895002 L29.8823547,11.2895002 C29.9038779,13.1206932 30.3272538,14.9251633 31.1229377,16.5769876 C32.2907411,16.1538048 33.5208894,15.9252989 34.7636693,15.9007045 L34.7636693,15.9007045 Z M42.2446383,19.2398524 C41.4366749,18.568295 40.5333821,18.0189323 39.5639662,17.609527 C38.7350095,19.2100295 37.608208,20.6398401 36.2432544,21.8232137 C38.4557397,21.5673726 40.5430429,20.6683684 42.2436256,19.238846 L42.2446383,19.2398524 Z M46.1648808,11.2895002 L41.2440701,11.2895002 C41.2183847,13.2223873 40.796254,15.12976 40.003487,16.8950017 C41.0611463,17.3605297 42.0450149,17.9765093 42.924174,18.7235827 C44.8727702,16.7160256 46.0239633,14.075224 46.1648808,11.2895002 L46.1648808,11.2895002 Z M35.5637187,15.9007045 L35.5637187,11.2895002 L40.4075627,11.2895002 C40.3962813,13.1219099 39.9723907,14.9285733 39.1669796,16.5769876 C38.0141611,16.1503804 36.7967329,15.9216928 35.5667569,15.9007045 L35.5637187,15.9007045 Z M34.7636693,0.43777256 C33.3951328,1.53955573 32.2654923,2.905526 31.4429575,4.45320362 C32.5075655,4.8436988 33.6292741,5.05854379 34.7636693,5.0892318 L34.7636693,0.43777256 L34.7636693,0.43777256 Z M35.5637187,0.43777256 C36.8857196,1.5644497 37.984735,2.92619597 38.8044255,4.45320362 C37.7708192,4.85494092 36.6734102,5.0703208 35.5637187,5.0892318 L35.5637187,0.43777256 Z M34.7636693,21.3482053 C33.3951328,20.2464221 32.2654923,18.8804519 31.4429575,17.3327742 C32.5021782,16.9234014 33.6272148,16.7079189 34.7636693,16.6967461 L34.7636693,21.3482053 L34.7636693,21.3482053 Z M35.5637187,21.3884602 C36.8874974,20.2325022 37.9860108,18.8444282 38.8044255,17.2935257 C37.7653786,16.9106265 36.6712353,16.6958876 35.5637187,16.6574975 L35.5637187,21.3874539 L35.5637187,21.3884602 Z" id="Mask"></path>
            </g>
        </g>
    </g>
</svg>