<svg width="14" height="13" viewBox="0 0 14 13" fill="none" xmlns="http://www.w3.org/2000/svg">
<path d="M8.16634 12.625L6.53301 10.5833H3.49967C3.34496 10.5833 3.19659 10.5218 3.0872 10.4124C2.9778 10.303 2.91634 10.1547 2.91634 9.99996V3.64338C2.91634 3.48867 2.9778 3.34029 3.0872 3.2309C3.19659 3.1215 3.34496 3.06004 3.49967 3.06004H12.833C12.9877 3.06004 13.1361 3.1215 13.2455 3.2309C13.3549 3.34029 13.4163 3.48867 13.4163 3.64338V9.99996C13.4163 10.1547 13.3549 10.303 13.2455 10.4124C13.1361 10.5218 12.9877 10.5833 12.833 10.5833H9.79967L8.16634 12.625ZM9.23909 9.41663H12.2497V4.22671H4.08301V9.41663H7.09359L8.16634 10.7571L9.23909 9.41663ZM1.16634 0.666626H11.083V1.83329H1.74967V8.24996H0.583008V1.24996C0.583008 1.09525 0.644466 0.946877 0.753862 0.83748C0.863258 0.728084 1.01163 0.666626 1.16634 0.666626Z" fill="#1E32FA"/>
</svg>
