<?xml version="1.0" encoding="UTF-8"?>
<svg width="18px" height="18px" viewBox="0 0 18 18" version="1.1" xmlns="http://www.w3.org/2000/svg" xmlns:xlink="http://www.w3.org/1999/xlink">
    <!-- Generator: Sketch 51.3 (57544) - http://www.bohemiancoding.com/sketch -->
    <title>noun_duplicate_990691</title>
    <desc>Created with Sketch.</desc>
    <defs></defs>
    <g id="Symbols" stroke="none" stroke-width="1" fill="none" fill-rule="evenodd">
        <g id="icons/duplicate" transform="translate(-11.000000, -11.000000)" fill="#152C5A" fill-rule="nonzero">
            <g id="noun_duplicate_990691" transform="translate(11.000000, 11.000000)">
                <path d="M16.5845455,5.01 L12.4690909,5.01 L12.4690909,1.22181818 C12.4690909,0.96142381 12.3656496,0.711694514 12.181523,0.527567888 C11.9973964,0.343441261 11.7476671,0.24 11.4872727,0.24 L1.17818182,0.24 C0.635938609,0.24 0.196363636,0.679574973 0.196363636,1.22181818 L0.196363636,11.5309091 C0.196363636,12.0731523 0.635938609,12.5127273 1.17818182,12.5127273 L5.05363636,12.5127273 L5.05363636,16.5409091 C5.05513618,17.2135722 5.60006418,17.7585002 6.27272727,17.76 L16.5818182,17.76 C17.2566097,17.76 17.8036364,17.2129734 17.8036364,16.5381818 L17.8036364,6.23181818 C17.803638,5.55809027 17.2582717,5.01150386 16.5845455,5.01 Z M17.3290909,16.5381818 C17.3290909,16.7356476 17.250648,16.9250256 17.1110186,17.064655 C16.9713892,17.2042843 16.7820112,17.2827273 16.5845455,17.2827273 L6.27272727,17.2827273 C5.86152617,17.2827273 5.52818182,16.9493829 5.52818182,16.5381818 L5.52818182,6.23181818 C5.52818182,6.03435245 5.60662477,5.8449744 5.74625413,5.70534504 C5.88588349,5.56571568 6.07526154,5.48727273 6.27272727,5.48727273 L16.5818182,5.48727273 C16.9919566,5.48726998 17.3248613,5.81895528 17.3263636,6.22909091 L17.3290909,16.5381818 Z" id="Shape"></path>
            </g>
        </g>
    </g>
</svg>