<svg width="80" height="80" viewBox="0 0 80 80" fill="none" xmlns="http://www.w3.org/2000/svg">
<path fill-rule="evenodd" clip-rule="evenodd" d="M32.8125 60.9375C17.3041 60.9375 4.6875 48.3209 4.6875 32.8125C4.6875 17.3041 17.3041 4.6875 32.8125 4.6875C48.3209 4.6875 60.9375 17.3041 60.9375 32.8125C60.9375 48.3209 48.3209 60.9375 32.8125 60.9375ZM57.6013 60.9369L54.2877 57.6233L57.6227 54.2877C58.6475 55.4694 59.7552 56.5771 60.9369 57.6019L57.6013 60.9369ZM71.0278 74.3414L60.9381 64.2517L64.2517 60.9381L74.3414 71.0278L71.0278 74.3414Z" fill="white"/>
<path fill-rule="evenodd" clip-rule="evenodd" d="M32.8125 0C50.9052 0 65.625 14.7198 65.625 32.8125C65.625 39.3201 63.7207 45.3906 60.4407 50.4974L79.3134 69.3707C79.7534 69.8102 80 70.4065 80 71.0278C80 71.6492 79.7534 72.2455 79.3134 72.6849L72.6849 79.3134C72.2272 79.7711 71.6272 80 71.0278 80C70.4279 80 69.8279 79.7711 69.3707 79.3134L50.4974 60.4401C45.3906 63.7207 39.3201 65.625 32.8125 65.625C14.7198 65.625 0 50.9052 0 32.8125C0 14.7198 14.7198 0 32.8125 0ZM71.0278 74.3414L74.3414 71.0278L64.2517 60.9381L60.9381 64.2517L71.0278 74.3414ZM57.6233 60.9369L60.9369 57.6233L57.6019 54.2877C56.5771 55.4694 55.4694 56.5771 54.2877 57.6019L57.6233 60.9369ZM32.8125 60.9375C48.3209 60.9375 60.9375 48.3209 60.9375 32.8125C60.9375 17.3041 48.3209 4.6875 32.8125 4.6875C17.3041 4.6875 4.6875 17.3041 4.6875 32.8125C4.6875 48.3209 17.3041 60.9375 32.8125 60.9375Z" fill="#E4E5EB"/>
<path fill-rule="evenodd" clip-rule="evenodd" d="M36.6508 33.4891L42.2605 27.8794C43.4321 26.7078 43.4321 24.8083 42.2605 23.6367C41.0889 22.4652 39.1894 22.4652 38.0178 23.6367L32.4081 29.2464L26.7985 23.6367C25.6269 22.4652 23.7274 22.4652 22.5558 23.6367C21.3842 24.8083 21.3842 26.7078 22.5558 27.8794L28.1655 33.4891L22.5558 39.0988C21.3842 40.2703 21.3842 42.1698 22.5558 43.3414C23.7274 44.513 25.6269 44.513 26.7985 43.3414L32.4081 37.7317L38.0178 43.3414C39.1894 44.513 41.0889 44.513 42.2605 43.3414C43.4321 42.1698 43.4321 40.2703 42.2605 39.0988L36.6508 33.4891Z" fill="#D2D6FE"/>
</svg>
