{
  "pdfManualPath": "/nfe.agent_group.manual.080923.pdf",
  "menuItems": [
    { "title": "Introduction", "path": "/introduction.html" },
    { "title": "Hardware and Software Requirements", "path": "/hardware-and-software-requirements.html" },
    { "title": "New BSPlink Training Portal", "path": "/new-bsplink-training-portal.html" },
    { "title": "Accessing the application", "path": "/accessing-the-application.html" },
    {
      "title": "General features",
      "path": "/general-features/general-features.html",
      "children": [
        {
          "title": "Switch to another BSPlink account",
          "path": "/general-features/switch-to-another-BSPlink-account.html"
        },
        { "title": "Help Pages", "path": "/general-features/help-pages.html" },
        { "title": "User details", "path": "/general-features/user-details.html" },
        { "title": "Menu bar", "path": "/general-features/menu-bar.html" },
        { "title": "Footer", "path": "/general-features/footer.html" }
      ]
    },
    {
      "title": "Main options",
      "path": "/main-options/main-options.html",
      "children": [
        { "title": "Dashboard", "path": "/main-options/dashboard.html" },
        {
          "title": "My Agent Group",
          "path": "/main-options/my-agent-group/my-agent-group.html",
          "children": [
            { "title": "Configuration", "path": "/main-options/my-agent-group/configuration.html" },
            { "title": "Member List", "path": "/main-options/my-agent-group/member-list.html" },
            { "title": "Ticketing Authority", "path": "/main-options/my-agent-group/ticketing-authority.html" },
            { "title": "RN Issuing Authority", "path": "/main-options/my-agent-group/rn-issuing-authority.html" },
            { "title": "users", "path": "/main-options/my-agent-group/users.html" }
          ]
        },
        {
          "title": "ADM/ACM",
          "path": "/main-options/adm-acm/adm-acm.html",
          "children": [
            {
              "title": "ADM",
              "path": "/main-options/adm-acm/adm.html",
              "children": [
                { "title": "ADNT", "path": "/main-options/adm-acm/adnt.html" },
                { "title": "ADM Request", "path": "/main-options/adm-acm/adm-request.html" }
              ]
            },
            {
              "title": "ACM",
              "path": "/main-options/adm-acm/acm.html",
              "children": [
                { "title": "ACMA", "path": "/main-options/adm-acm/acma.html" },
                { "title": "ACNT", "path": "/main-options/adm-acm/acnt.html" },
                { "title": "ACM Request", "path": "/main-options/adm-acm/acm-request.html" }
              ]
            },
            { "title": "BSP Adjustments", "path": "/main-options/adm-acm/bsp-adjustments.html" },
            { "title": "Search ADM/ACM by number", "path": "/main-options/adm-acm/search-adm-acm.html" }
          ]
        },
        {
          "title": "Refund",
          "path": "/main-options/refund/refund.html",
          "children": [
            {
              "title": "Refund Applications",
              "path": "/main-options/refund/refund-applications.html",
              "children": [
                {
                  "title": "How can an Agent User request a Refund to an Airline?",
                  "path": "/main-options/refund/how-can-an-agent-user-request-a-refund-to-an-airline.html"
                },
                {
                  "title": "Final Refund Applications",
                  "path": "/main-options/refund/final-refund-applications.html"
                },
                {
                  "title": "How can I check the status of a Refund?",
                  "path": "/main-options/refund/how-can-i-check-the-status-of-a-refund.html"
                },
                { "title": "RA Activity", "path": "/main-options/refund/ra-activity.html" },
                {
                  "title": "Automatic processing of Refund Applications",
                  "path": "/main-options/refund/automatic-processing-of-RA.html"
                }
              ]
            },
            { "title": "Refund Notices", "path": "/main-options/refund/refund-notices.html" }
          ]
        },
        {
          "title": "Documents",
          "path": "/main-options/documents/documents.html",
          "children": [
            {
              "title": "Document Enquiry",
              "path": "/main-options/documents/document-enquiry.html",
              "children": [
                { "title": "Ticket facsimile", "path": "/main-options/documents/ticket-facsimile.html" },
                { "title": "Other facsimiles", "path": "/main-options/documents/other-facsimiles.html" }
              ]
            },
            { "title": "Rejected Documents", "path": "/main-options/documents/rejected-documents.html" },
            { "title": "Credit Cards Documents", "path": "/main-options/documents/credit-cards-documents.html" },
            { "title": "Net Remit Documents", "path": "/main-options/documents/net-remit-documents.html" }
          ]
        },
        {
          "title": "Files",
          "path": "/main-options/files/files.html",
          "": [
            { "title": "Reports and Communications", "path": "/main-options/files/reports.html" },
            { "title": "Upload reports", "path": "/main-options/files/upload-reports.html" },
            { "title": "Agent Reports", "path": "/main-options/files/agent-reports.html" }
          ]
        },
        {
          "title": "Sales",
          "path": "/main-options/sales/sales.html",
          "children": [
            { "title": "Billing Statement", "path": "/main-options/sales/billing-statement.html" },
            { "title": "Billing Analysis", "path": "/main-options/sales/billing-analysis.html" },
            { "title": "Advance Payment", "path": "/main-options/sales/advance-payment.html" }
          ]
        },
        {
          "title": "Master Data",
          "path": "/main-options/master-data/master-data.html",
          "children": [
            { "title": "Airlines", "path": "/main-options/master-data/airlines.html" },
            { "title": "Agent Groups", "path": "/main-options/master-data/agent-groups.html" },
            { "title": "CUrrency BSP Assignements", "path": "/main-options/master-data/currency-bsp-assignements.html" }
          ]
        },
        {
          "title": "Users",
          "path": "/main-options/users/users.html"
        },
        {
          "title": "Post Billing Dispute",
          "path": "/main-options/post-billing-disputes/post-billing-disputes.html",
          "children": [
            {
              "title": "How can I start a Post Billing Dispute?",
              "path": "/main-options/post-billing-disputes/start-post-billing-dispute.html"
            },
            {
              "title": "How can I check the status of my Post-Billing Dispute?",
              "path": "/main-options/post-billing-disputes/status-post-billing-dispute.html"
            },
            {
              "title": "How can I modify my Post-Billing Dispute?",
              "path": "/main-options/post-billing-disputes/modify-post-billing-dispute.html"
            }
          ]
        }
      ]
    }
  ]
}
