[
  {
    "period": "2020011",
    "dateFrom": "01/01/20",
    "dateTo": "01/10/20"
  },
  {
    "period": "2020012",
    "dateFrom": "01/11/20",
    "dateTo": "01/20/20"
  },
  {
    "period": "2020013",
    "dateFrom": "01/21/20",
    "dateTo": "01/31/20"
  },
  {
    "period": "2020021",
    "dateFrom": "02/01/20",
    "dateTo": "02/10/20"
  },
  {
    "period": "2020022",
    "dateFrom": "02/11/20",
    "dateTo": "02/20/20"
  },
  {
    "period": "2020023",
    "dateFrom": "02/21/20",
    "dateTo": "02/20/20"
  },
  {
    "period": "2020031",
    "dateFrom": "03/01/20",
    "dateTo": "03/10/20"
  },
  {
    "period": "2020032",
    "dateFrom": "03/11/20",
    "dateTo": "03/20/20"
  },
  {
    "period": "2020033",
    "dateFrom": "03/21/20",
    "dateTo": "03/31/20"
  },
  {
    "period": "2020041",
    "dateFrom": "04/01/20",
    "dateTo": "04/10/20"
  },
  {
    "period": "2020042",
    "dateFrom": "04/11/20",
    "dateTo": "04/20/20"
  },
  {
    "period": "2020043",
    "dateFrom": "04/21/20",
    "dateTo": "04/30/20"
  },
  {
    "period": "2020051",
    "dateFrom": "05/01/20",
    "dateTo": "05/10/20"
  },
  {
    "period": "2020052",
    "dateFrom": "05/11/20",
    "dateTo": "05/20/20"
  },
  {
    "period": "2020053",
    "dateFrom": "05/21/20",
    "dateTo": "05/31/20"
  },
  {
    "period": "2020061",
    "dateFrom": "06/01/20",
    "dateTo": "06/10/20"
  },
  {
    "period": "2020062",
    "dateFrom": "06/11/20",
    "dateTo": "06/20/20"
  },
  {
    "period": "2020063",
    "dateFrom": "06/21/20",
    "dateTo": "06/30/20"
  },
  {
    "period": "2020071",
    "dateFrom": "07/01/20",
    "dateTo": "07/10/20"
  },
  {
    "period": "2020072",
    "dateFrom": "07/11/20",
    "dateTo": "07/20/20"
  },
  {
    "period": "2020073",
    "dateFrom": "07/21/20",
    "dateTo": "07/31/20"
  },
  {
    "period": "2020081",
    "dateFrom": "08/01/20",
    "dateTo": "08/10/20"
  },
  {
    "period": "2020082",
    "dateFrom": "08/11/20",
    "dateTo": "08/20/20"
  },
  {
    "period": "2020083",
    "dateFrom": "08/21/20",
    "dateTo": "08/31/20"
  },
  {
    "period": "2020091",
    "dateFrom": "09/01/20",
    "dateTo": "09/10/20"
  },
  {
    "period": "2020092",
    "dateFrom": "09/11/20",
    "dateTo": "09/20/20"
  },
  {
    "period": "2020093",
    "dateFrom": "09/21/20",
    "dateTo": "09/30/20"
  },
  {
    "period": "2020101",
    "dateFrom": "10/01/20",
    "dateTo": "10/10/20"
  },
  {
    "period": "2020102",
    "dateFrom": "10/11/20",
    "dateTo": "10/20/20"
  },
  {
    "period": "2020103",
    "dateFrom": "10/21/20",
    "dateTo": "10/31/20"
  },
  {
    "period": "2020111",
    "dateFrom": "11/01/20",
    "dateTo": "11/10/20"
  },
  {
    "period": "2020112",
    "dateFrom": "11/11/20",
    "dateTo": "11/20/20"
  },
  {
    "period": "2020113",
    "dateFrom": "11/21/20",
    "dateTo": "11/30/20"
  },
  {
    "period": "2020121",
    "dateFrom": "12/01/20",
    "dateTo": "12/10/20"
  },
  {
    "period": "2020122",
    "dateFrom": "12/11/20",
    "dateTo": "12/20/20"
  },
  {
    "period": "2020123",
    "dateFrom": "12/21/20",
    "dateTo": "12/31/20"
  }
]
