[
  {
    "period": "2019011",
    "dateFrom": "01/01/19",
    "dateTo": "01/10/19"
  },
  {
    "period": "2019012",
    "dateFrom": "01/11/19",
    "dateTo": "01/20/19"
  },
  {
    "period": "2019013",
    "dateFrom": "01/21/19",
    "dateTo": "01/31/19"
  },
  {
    "period": "2019021",
    "dateFrom": "02/01/19",
    "dateTo": "02/10/19"
  },
  {
    "period": "2019022",
    "dateFrom": "02/11/19",
    "dateTo": "02/20/19"
  },
  {
    "period": "2019023",
    "dateFrom": "02/21/19",
    "dateTo": "02/28/19"
  },
  {
    "period": "2019031",
    "dateFrom": "03/01/19",
    "dateTo": "03/10/19"
  },
  {
    "period": "2019032",
    "dateFrom": "03/11/19",
    "dateTo": "03/20/19"
  },
  {
    "period": "2019033",
    "dateFrom": "03/21/19",
    "dateTo": "03/31/19"
  },
  {
    "period": "2019041",
    "dateFrom": "04/01/19",
    "dateTo": "04/10/19"
  },
  {
    "period": "2019042",
    "dateFrom": "04/11/19",
    "dateTo": "04/20/19"
  },
  {
    "period": "2019043",
    "dateFrom": "04/21/19",
    "dateTo": "04/30/19"
  },
  {
    "period": "2019051",
    "dateFrom": "05/01/19",
    "dateTo": "05/10/19"
  },
  {
    "period": "2019052",
    "dateFrom": "05/11/19",
    "dateTo": "05/20/19"
  },
  {
    "period": "2019053",
    "dateFrom": "05/21/19",
    "dateTo": "05/31/19"
  },
  {
    "period": "2019061",
    "dateFrom": "06/01/19",
    "dateTo": "06/10/19"
  },
  {
    "period": "2019062",
    "dateFrom": "06/11/19",
    "dateTo": "06/20/19"
  },
  {
    "period": "2019063",
    "dateFrom": "06/21/19",
    "dateTo": "06/30/19"
  },
  {
    "period": "2019071",
    "dateFrom": "07/01/19",
    "dateTo": "07/10/19"
  },
  {
    "period": "2019072",
    "dateFrom": "07/11/19",
    "dateTo": "07/20/19"
  },
  {
    "period": "2019073",
    "dateFrom": "07/21/19",
    "dateTo": "07/31/19"
  },
  {
    "period": "2019081",
    "dateFrom": "08/01/19",
    "dateTo": "08/10/19"
  },
  {
    "period": "2019082",
    "dateFrom": "08/11/19",
    "dateTo": "08/20/19"
  },
  {
    "period": "2019083",
    "dateFrom": "08/21/19",
    "dateTo": "08/31/19"
  },
  {
    "period": "2019091",
    "dateFrom": "09/01/19",
    "dateTo": "09/10/19"
  },
  {
    "period": "2019092",
    "dateFrom": "09/11/19",
    "dateTo": "09/20/19"
  },
  {
    "period": "2019093",
    "dateFrom": "09/21/19",
    "dateTo": "09/30/19"
  },
  {
    "period": "2019101",
    "dateFrom": "10/01/19",
    "dateTo": "10/10/19"
  },
  {
    "period": "2019102",
    "dateFrom": "10/11/19",
    "dateTo": "10/20/19"
  },
  {
    "period": "2019103",
    "dateFrom": "10/21/19",
    "dateTo": "10/31/19"
  },
  {
    "period": "2019111",
    "dateFrom": "11/01/19",
    "dateTo": "11/10/19"
  },
  {
    "period": "2019112",
    "dateFrom": "11/11/19",
    "dateTo": "11/20/19"
  },
  {
    "period": "2019113",
    "dateFrom": "11/21/19",
    "dateTo": "11/30/19"
  },
  {
    "period": "2019121",
    "dateFrom": "12/01/19",
    "dateTo": "12/10/19"
  },
  {
    "period": "2019122",
    "dateFrom": "12/11/19",
    "dateTo": "12/20/19"
  },
  {
    "period": "2019123",
    "dateFrom": "12/21/19",
    "dateTo": "12/31/19"
  }
]
