<?xml version="1.0" encoding="UTF-8"?>
<svg width="24px" height="24px" viewBox="0 0 24 24" version="1.1" xmlns="http://www.w3.org/2000/svg" xmlns:xlink="http://www.w3.org/1999/xlink">
    <title>Icons/ic_dashboard Default</title>
    <defs>
        <filter id="filter-1">
            <feColorMatrix in="SourceGraphic" type="matrix" values="0 0 0 0 0.603922 0 0 0 0 0.607843 0 0 0 0 0.650980 0 0 0 1.000000 0"></feColorMatrix>
        </filter>
    </defs>
    <g id="Symbols" stroke="none" stroke-width="1" fill="none" fill-rule="evenodd">
        <g id="Icons/ic_dashboard-Default">
            <polygon id="Shape" points="0 0 24 0 24 24 0 24"></polygon>
            <g id="Color" fill="#9E9E9E" fill-rule="nonzero" opacity="0">
                <rect id="Rectangle-path-Copy-23" x="0" y="0" width="24" height="24"></rect>
            </g>
            <g id="bill" transform="translate(2.000000, 2.000000)" filter="url(#filter-1)">
                <g transform="translate(1.000000, 1.000000)">
                    <path d="M16.2,18 L1.8,18 C1.561302,18 1.332387,17.90514 1.163601,17.73639 C0.994824,17.56764 0.9,17.33868 0.9,17.1 L0.9,0.9 C0.9,0.661302 0.994824,0.432387 1.163601,0.263601 C1.332387,0.094824 1.561302,0 1.8,0 L16.2,0 C16.43868,0 16.66764,0.094824 16.83639,0.263601 C17.00514,0.432387 17.1,0.661302 17.1,0.9 L17.1,17.1 C17.1,17.33868 17.00514,17.56764 16.83639,17.73639 C16.66764,17.90514 16.43868,18 16.2,18 Z M15.3,16.2 L15.3,1.8 L2.7,1.8 L2.7,16.2 L15.3,16.2 Z M5.4,6.3 L12.6,6.3 L12.6,8.1 L5.4,8.1 L5.4,6.3 Z M5.4,9.9 L12.6,9.9 L12.6,11.7 L5.4,11.7 L5.4,9.9 Z" id="Shape" fill="#2F3C46" fill-rule="nonzero"></path>
                </g>
            </g>
        </g>
    </g>
</svg>