<?xml version="1.0" encoding="UTF-8"?>
<svg width="24px" height="24px" viewBox="0 0 24 24" version="1.1" xmlns="http://www.w3.org/2000/svg" xmlns:xlink="http://www.w3.org/1999/xlink">
    <!-- Generator: sketchtool 64 (101010) - https://sketch.com -->
    <title>CD6B85CE-1D5D-40A9-B8EF-86B57547F847@1.00x</title>
    <desc>Created with sketchtool.</desc>
    <g id="Documentation" stroke="none" stroke-width="1" fill="none" fill-rule="evenodd">
        <g id="IATA-Icons" transform="translate(-337.000000, -230.000000)">
            <g id="Icons/30-IATA/BSP" transform="translate(334.000000, 227.000000)">
                <rect id="Rectangle" fill="#D8D8D8" opacity="0" x="0" y="0" width="30" height="30"></rect>
                <path d="M15,17.0000252 C13.8954013,17.0000252 12.9999748,16.1045987 12.9999748,15 C12.9999748,13.8954769 13.8954013,13.0000504 15,13.0000504 C16.1045987,13.0000504 17.0000252,13.8954769 17.0000252,15 C17.0000252,16.1045987 16.1045987,17.0000252 15,17.0000252 L15,17.0000252 Z M17.0000252,9 L12.9999748,9 L9,13.0000504 L9,17.0000252 L12.9999748,21 L17.0000252,21 L21,17.0000252 L21,13.0000504 L17.0000252,9 Z" id="Fill-2074" fill="#F04632"></path>
                <path d="M13,15 C13,13.8955026 13.8953546,13 15.0003306,13 C16.1046454,13 17,13.8955026 17,15 C17,16.1044974 16.1046454,17 15.0003306,17 C13.8953546,17 13,16.1044974 13,15" id="Fill-4184" fill="#FAC832"></path>
                <polygon id="Fill-2116-Copy" fill="#1E32FA" points="24 7 24 24 7 24 7 27 23.6667507 27 27 27 27 7"></polygon>
                <polygon id="Fill-2116-Copy" fill="#1E32FA" transform="translate(13.000000, 13.000000) rotate(-180.000000) translate(-13.000000, -13.000000) " points="20 3 20 20 3 20 3 23 19.6667507 23 23 23 23 3"></polygon>
            </g>
        </g>
    </g>
</svg>