<?xml version="1.0" encoding="UTF-8"?>
<svg width="30px" height="30px" viewBox="0 0 30 30" version="1.1" xmlns="http://www.w3.org/2000/svg" xmlns:xlink="http://www.w3.org/1999/xlink">
    <!-- Generator: Sketch 59.1 (86144) - https://sketch.com -->
    <title>User</title>
    <desc>Created with Sketch.</desc>
    <g id="User" stroke="none" stroke-width="1" fill="none" fill-rule="evenodd">
        <g id="Icons/30-IATA/User">
            <rect id="Rectangle" fill="#D8D8D8" opacity="0" x="0" y="0" width="30" height="30"></rect>
            <g id="42_travel_agents" stroke-width="1" transform="translate(3.000000, 3.000000)">
                <path d="M0,6 C0,9.31532847 2.68905109,12 6,12 C9.31094891,12 12,9.31094891 12,6 C12,2.68467153 9.31094891,0 6,0 C2.68905109,0 0,2.68905109 0,6" id="Path" fill="#F04632" fill-rule="nonzero"></path>
                <polygon id="Path" fill="#1E32FA" fill-rule="nonzero" points="12 12 12 17.9956268 7.99854227 17.9956268 7.99854227 23.9956268 -9.40914013e-14 23.9956268 -9.40914013e-14 12"></polygon>
                <polygon id="Path-Copy" fill="#FAC832" fill-rule="nonzero" transform="translate(18.000000, 17.997813) rotate(180.000000) translate(-18.000000, -17.997813) " points="24 12 24 17.9956268 19.9985423 17.9956268 19.9985423 23.9956268 12 23.9956268 12 12"></polygon>
            </g>
        </g>
    </g>
</svg>