<?xml version="1.0" encoding="UTF-8"?>
<svg width="20px" height="24px" viewBox="0 0 20 24" version="1.1" xmlns="http://www.w3.org/2000/svg">
    <!-- Generator: sketchtool 57.1 (101010) - https://sketch.com -->
    <title>0A712FC4-7A78-482D-B564-E0F95F99FE05@2.00x</title>
    <desc>Created with sketchtool.</desc>
    <g id="NEW-IATA" stroke="none" stroke-width="1" fill="none" fill-rule="evenodd">
        <g id="NFE-Upper-Header" transform="translate(-1033.000000, -775.000000)">
            <g id="Group-9" transform="translate(80.000000, 641.000000)">
                <g id="Group-11" transform="translate(720.000000, 81.000000)">
                    <g id="Group-4" transform="translate(0.000000, 50.000000)">
                        <g id="Icons/Header-Icons/Bell/Idle" transform="translate(228.000000, 0.000000)">
                            <g id="Group-2-Copy-17">
                                <rect id="Rectangle" fill-opacity="0" fill="#F7F9FA" x="0" y="0" width="30" height="30"></rect>
                                <g id="Question" transform="translate(5.000000, 3.000000)">
                                    <path d="M18,8 L18,18 L2,18 L2,8 C2,3.581722 5.581722,0 10,0 C14.418278,0 18,3.581722 18,8 Z M16,16 L16,8 C16,4.6862915 13.3137085,2 10,2 C6.6862915,2 4,4.6862915 4,8 L4,16 L16,16 Z" id="Combined-Shape" fill="#9A9BA6"></path>
                                    <path d="M20,16 L20,18 L20,22 L18,22 L18,18 L2,18 L2,22 L0,22 L0,16 L20,16 Z" id="Combined-Shape" fill="#9A9BA6"></path>
                                    <rect id="Rectangle" fill="#FFFFFF" x="6" y="22" width="8" height="2"></rect>
                                    <circle id="Oval-Copy-3" fill="#9A9BA6" cx="10" cy="22" r="2"></circle>
                                </g>
                            </g>
                        </g>
                    </g>
                </g>
            </g>
        </g>
    </g>
</svg>
