<?xml version="1.0" encoding="UTF-8"?>
<svg width="16px" height="24px" viewBox="0 0 16 24" version="1.1" xmlns="http://www.w3.org/2000/svg">
    <!-- Generator: sketchtool 57.1 (101010) - https://sketch.com -->
    <title>CB55F35D-AFF1-44FD-B2A9-F28C5EE63A44@2.00x</title>
    <desc>Created with sketchtool.</desc>
    <g id="NEW-IATA" stroke="none" stroke-width="1" fill="none" fill-rule="evenodd">
        <g id="NFE-Upper-Header" transform="translate(-887.000000, -775.000000)">
            <g id="Group-9" transform="translate(80.000000, 641.000000)">
                <g id="Group-11" transform="translate(720.000000, 81.000000)">
                    <g id="Group-4" transform="translate(0.000000, 50.000000)">
                        <g id="Icons/Header-Icons/Help/Idle" transform="translate(80.000000, 0.000000)">
                            <g id="Group-2-Copy-16">
                                <rect id="Rectangle" fill-opacity="0" fill="#F7F9FA" x="0" y="0" width="30" height="30"></rect>
                                <g id="Question" transform="translate(7.000000, 3.000000)" fill="#9A9BA6">
                                    <circle id="Oval" cx="8" cy="22" r="2"></circle>
                                    <path d="M8,0 C12.418278,0 16,3.581722 16,8 C16,12.0792885 12.9468043,15.445465 9.00095508,15.9379871 L9,18 L7,18 L7,14 L8,14 L8.22493826,13.9958615 C11.4344251,13.8775718 14,11.2383969 14,8 C14,4.6862915 11.3137085,2 8,2 C4.76160306,2 2.12242824,4.56557489 2.00413847,7.77506174 L2,8 L0,8 L0.00380682464,7.75082067 C0.135457134,3.44783777 3.66508574,0 8,0 Z" id="Combined-Shape"></path>
                                </g>
                            </g>
                        </g>
                    </g>
                </g>
            </g>
        </g>
    </g>
</svg>
